{
	"info": {
		"_postman_id": "7a112956-cc67-4163-ad39-d5092127977c",
		"name": "Task5",
		"description": "Collection of all 6 API calls for task 5",
		"schema": "https://schema.getpostman.com/json/collection/v2.1.0/collection.json"
	},
	"item": [
		{
			"name": "Get all customers",
			"request": {
				"method": "GET",
				"header": [],
				"url": {
					"raw": "https://noroff-task5api.herokuapp.com/api/customers",
					"protocol": "https",
					"host": [
						"noroff-task5api",
						"herokuapp",
						"com"
					],
					"path": [
						"api",
						"customers"
					]
				}
			},
			"response": [
				{
					"name": "Get all customers",
					"originalRequest": {
						"method": "GET",
						"header": [],
						"url": {
							"raw": "https://noroff-task5api.herokuapp.com/api/customers",
							"protocol": "https",
							"host": [
								"noroff-task5api",
								"herokuapp",
								"com"
							],
							"path": [
								"api",
								"customers"
							]
						}
					},
					"status": "OK",
					"code": 200,
					"_postman_previewlanguage": "json",
					"header": [
						{
							"key": "Server",
							"value": "Cowboy"
						},
						{
							"key": "Connection",
							"value": "keep-alive"
						},
						{
							"key": "Content-Type",
							"value": "application/json"
						},
						{
							"key": "Transfer-Encoding",
							"value": "chunked"
						},
						{
							"key": "Date",
							"value": "Wed, 30 Sep 2020 13:35:59 GMT"
						},
						{
							"key": "Via",
							"value": "1.1 vegur"
						}
					],
					"cookie": [],
					"body": "[\n    {\n        \"id\": 1,\n        \"firstName\": \"Luís\",\n        \"lastName\": \"Gonçalves\",\n        \"country\": \"Brazil\",\n        \"postalCode\": \"12227-000\",\n        \"phone\": \"+55 (12) 3923-5555\"\n    },\n    {\n        \"id\": 2,\n        \"firstName\": \"Leonie\",\n        \"lastName\": \"Köhler\",\n        \"country\": \"Germany\",\n        \"postalCode\": \"70174\",\n        \"phone\": \"+49 0711 2842222\"\n    },\n    {\n        \"id\": 3,\n        \"firstName\": \"François\",\n        \"lastName\": \"Tremblay\",\n        \"country\": \"Canada\",\n        \"postalCode\": \"H2G 1A7\",\n        \"phone\": \"+1 (514) 721-4711\"\n    },\n    {\n        \"id\": 4,\n        \"firstName\": \"Bjørn\",\n        \"lastName\": \"Hansen\",\n        \"country\": \"Norway\",\n        \"postalCode\": \"0171\",\n        \"phone\": \"+47 22 44 22 22\"\n    },\n    {\n        \"id\": 5,\n        \"firstName\": \"František\",\n        \"lastName\": \"Wichterlová\",\n        \"country\": \"Czech Republic\",\n        \"postalCode\": \"14700\",\n        \"phone\": \"+420 2 4172 5555\"\n    },\n    {\n        \"id\": 6,\n        \"firstName\": \"Helena\",\n        \"lastName\": \"Holý\",\n        \"country\": \"Czech Republic\",\n        \"postalCode\": \"14300\",\n        \"phone\": \"+420 2 4177 0449\"\n    },\n    {\n        \"id\": 7,\n        \"firstName\": \"Astrid\",\n        \"lastName\": \"Gruber\",\n        \"country\": \"Austria\",\n        \"postalCode\": \"1010\",\n        \"phone\": \"+43 01 5134505\"\n    },\n    {\n        \"id\": 8,\n        \"firstName\": \"Daan\",\n        \"lastName\": \"Peeters\",\n        \"country\": \"Belgium\",\n        \"postalCode\": \"1000\",\n        \"phone\": \"+32 02 219 03 03\"\n    },\n    {\n        \"id\": 9,\n        \"firstName\": \"Kara\",\n        \"lastName\": \"Nielsen\",\n        \"country\": \"Denmark\",\n        \"postalCode\": \"1720\",\n        \"phone\": \"+453 3331 9991\"\n    },\n    {\n        \"id\": 10,\n        \"firstName\": \"Eduardo\",\n        \"lastName\": \"Martins\",\n        \"country\": \"Brazil\",\n        \"postalCode\": \"01007-010\",\n        \"phone\": \"+55 (11) 3033-5446\"\n    },\n    {\n        \"id\": 11,\n        \"firstName\": \"Alexandre\",\n        \"lastName\": \"Rocha\",\n        \"country\": \"Brazil\",\n        \"postalCode\": \"01310-200\",\n        \"phone\": \"+55 (11) 3055-3278\"\n    },\n    {\n        \"id\": 12,\n        \"firstName\": \"Roberto\",\n        \"lastName\": \"Almeida\",\n        \"country\": \"Brazil\",\n        \"postalCode\": \"20040-020\",\n        \"phone\": \"+55 (21) 2271-7000\"\n    },\n    {\n        \"id\": 13,\n        \"firstName\": \"Fernanda\",\n        \"lastName\": \"Ramos\",\n        \"country\": \"Brazil\",\n        \"postalCode\": \"71020-677\",\n        \"phone\": \"+55 (61) 3363-5547\"\n    },\n    {\n        \"id\": 14,\n        \"firstName\": \"Mark\",\n        \"lastName\": \"Philips\",\n        \"country\": \"Canada\",\n        \"postalCode\": \"T6G 2C7\",\n        \"phone\": \"+1 (780) 434-4554\"\n    },\n    {\n        \"id\": 15,\n        \"firstName\": \"Jennifer\",\n        \"lastName\": \"Peterson\",\n        \"country\": \"Canada\",\n        \"postalCode\": \"V6C 1G8\",\n        \"phone\": \"+1 (604) 688-2255\"\n    },\n    {\n        \"id\": 16,\n        \"firstName\": \"Frank\",\n        \"lastName\": \"Harris\",\n        \"country\": \"USA\",\n        \"postalCode\": \"94043-1351\",\n        \"phone\": \"+1 (650) 253-0000\"\n    },\n    {\n        \"id\": 17,\n        \"firstName\": \"Jack\",\n        \"lastName\": \"Smith\",\n        \"country\": \"USA\",\n        \"postalCode\": \"98052-8300\",\n        \"phone\": \"+1 (425) 882-8080\"\n    },\n    {\n        \"id\": 18,\n        \"firstName\": \"Michelle\",\n        \"lastName\": \"Brooks\",\n        \"country\": \"USA\",\n        \"postalCode\": \"10012-2612\",\n        \"phone\": \"+1 (212) 221-3546\"\n    },\n    {\n        \"id\": 19,\n        \"firstName\": \"Tim\",\n        \"lastName\": \"Goyer\",\n        \"country\": \"USA\",\n        \"postalCode\": \"95014\",\n        \"phone\": \"+1 (408) 996-1010\"\n    },\n    {\n        \"id\": 20,\n        \"firstName\": \"Dan\",\n        \"lastName\": \"Miller\",\n        \"country\": \"USA\",\n        \"postalCode\": \"94040-111\",\n        \"phone\": \"+1 (650) 644-3358\"\n    },\n    {\n        \"id\": 21,\n        \"firstName\": \"Kathy\",\n        \"lastName\": \"Chase\",\n        \"country\": \"USA\",\n        \"postalCode\": \"89503\",\n        \"phone\": \"+1 (775) 223-7665\"\n    },\n    {\n        \"id\": 22,\n        \"firstName\": \"Heather\",\n        \"lastName\": \"Leacock\",\n        \"country\": \"USA\",\n        \"postalCode\": \"32801\",\n        \"phone\": \"+1 (407) 999-7788\"\n    },\n    {\n        \"id\": 23,\n        \"firstName\": \"John\",\n        \"lastName\": \"Gordon\",\n        \"country\": \"USA\",\n        \"postalCode\": \"2113\",\n        \"phone\": \"+1 (617) 522-1333\"\n    },\n    {\n        \"id\": 24,\n        \"firstName\": \"Frank\",\n        \"lastName\": \"Ralston\",\n        \"country\": \"USA\",\n        \"postalCode\": \"60611\",\n        \"phone\": \"+1 (312) 332-3232\"\n    },\n    {\n        \"id\": 25,\n        \"firstName\": \"Victor\",\n        \"lastName\": \"Stevens\",\n        \"country\": \"USA\",\n        \"postalCode\": \"53703\",\n        \"phone\": \"+1 (608) 257-0597\"\n    },\n    {\n        \"id\": 26,\n        \"firstName\": \"Richard\",\n        \"lastName\": \"Cunningham\",\n        \"country\": \"USA\",\n        \"postalCode\": \"76110\",\n        \"phone\": \"+1 (817) 924-7272\"\n    },\n    {\n        \"id\": 27,\n        \"firstName\": \"Patrick\",\n        \"lastName\": \"Gray\",\n        \"country\": \"USA\",\n        \"postalCode\": \"85719\",\n        \"phone\": \"+1 (520) 622-4200\"\n    },\n    {\n        \"id\": 28,\n        \"firstName\": \"Julia\",\n        \"lastName\": \"Barnett\",\n        \"country\": \"USA\",\n        \"postalCode\": \"84102\",\n        \"phone\": \"+1 (801) 531-7272\"\n    },\n    {\n        \"id\": 29,\n        \"firstName\": \"Robert\",\n        \"lastName\": \"Brown\",\n        \"country\": \"Canada\",\n        \"postalCode\": \"M6J 1V1\",\n        \"phone\": \"+1 (416) 363-8888\"\n    },\n    {\n        \"id\": 30,\n        \"firstName\": \"Edward\",\n        \"lastName\": \"Francis\",\n        \"country\": \"Canada\",\n        \"postalCode\": \"K2P 1L7\",\n        \"phone\": \"+1 (613) 234-3322\"\n    },\n    {\n        \"id\": 31,\n        \"firstName\": \"Martha\",\n        \"lastName\": \"Silk\",\n        \"country\": \"Canada\",\n        \"postalCode\": \"B3S 1C5\",\n        \"phone\": \"+1 (902) 450-0450\"\n    },\n    {\n        \"id\": 32,\n        \"firstName\": \"Aaron\",\n        \"lastName\": \"Mitchell\",\n        \"country\": \"Canada\",\n        \"postalCode\": \"R3L 2B9\",\n        \"phone\": \"+1 (204) 452-6452\"\n    },\n    {\n        \"id\": 33,\n        \"firstName\": \"Ellie\",\n        \"lastName\": \"Sullivan\",\n        \"country\": \"Canada\",\n        \"postalCode\": \"X1A 1N6\",\n        \"phone\": \"+1 (867) 920-2233\"\n    },\n    {\n        \"id\": 34,\n        \"firstName\": \"João\",\n        \"lastName\": \"Fernandes\",\n        \"country\": \"Portugal\",\n        \"postalCode\": null,\n        \"phone\": \"+351 (213) 466-111\"\n    },\n    {\n        \"id\": 35,\n        \"firstName\": \"Madalena\",\n        \"lastName\": \"Sampaio\",\n        \"country\": \"Portugal\",\n        \"postalCode\": null,\n        \"phone\": \"+351 (225) 022-448\"\n    },\n    {\n        \"id\": 36,\n        \"firstName\": \"Hannah\",\n        \"lastName\": \"Schneider\",\n        \"country\": \"Germany\",\n        \"postalCode\": \"10789\",\n        \"phone\": \"+49 030 26550280\"\n    },\n    {\n        \"id\": 37,\n        \"firstName\": \"Fynn\",\n        \"lastName\": \"Zimmermann\",\n        \"country\": \"Germany\",\n        \"postalCode\": \"60316\",\n        \"phone\": \"+49 069 40598889\"\n    },\n    {\n        \"id\": 38,\n        \"firstName\": \"Niklas\",\n        \"lastName\": \"Schröder\",\n        \"country\": \"Germany\",\n        \"postalCode\": \"10779\",\n        \"phone\": \"+49 030 2141444\"\n    },\n    {\n        \"id\": 39,\n        \"firstName\": \"Camille\",\n        \"lastName\": \"Bernard\",\n        \"country\": \"France\",\n        \"postalCode\": \"75009\",\n        \"phone\": \"+33 01 49 70 65 65\"\n    },\n    {\n        \"id\": 40,\n        \"firstName\": \"Dominique\",\n        \"lastName\": \"Lefebvre\",\n        \"country\": \"France\",\n        \"postalCode\": \"75002\",\n        \"phone\": \"+33 01 47 42 71 71\"\n    },\n    {\n        \"id\": 41,\n        \"firstName\": \"Marc\",\n        \"lastName\": \"Dubois\",\n        \"country\": \"France\",\n        \"postalCode\": \"69002\",\n        \"phone\": \"+33 04 78 30 30 30\"\n    },\n    {\n        \"id\": 42,\n        \"firstName\": \"Wyatt\",\n        \"lastName\": \"Girard\",\n        \"country\": \"France\",\n        \"postalCode\": \"33000\",\n        \"phone\": \"+33 05 56 96 96 96\"\n    },\n    {\n        \"id\": 43,\n        \"firstName\": \"Isabelle\",\n        \"lastName\": \"Mercier\",\n        \"country\": \"France\",\n        \"postalCode\": \"21000\",\n        \"phone\": \"+33 03 80 73 66 99\"\n    },\n    {\n        \"id\": 44,\n        \"firstName\": \"Terhi\",\n        \"lastName\": \"Hämäläinen\",\n        \"country\": \"Finland\",\n        \"postalCode\": \"00530\",\n        \"phone\": \"+358 09 870 2000\"\n    },\n    {\n        \"id\": 45,\n        \"firstName\": \"Ladislav\",\n        \"lastName\": \"Kovács\",\n        \"country\": \"Hungary\",\n        \"postalCode\": \"H-1073\",\n        \"phone\": null\n    },\n    {\n        \"id\": 46,\n        \"firstName\": \"Hugh\",\n        \"lastName\": \"O'Reilly\",\n        \"country\": \"Ireland\",\n        \"postalCode\": null,\n        \"phone\": \"+353 01 6792424\"\n    },\n    {\n        \"id\": 47,\n        \"firstName\": \"Lucas\",\n        \"lastName\": \"Mancini\",\n        \"country\": \"Italy\",\n        \"postalCode\": \"00192\",\n        \"phone\": \"+39 06 39733434\"\n    },\n    {\n        \"id\": 48,\n        \"firstName\": \"Johannes\",\n        \"lastName\": \"Van der Berg\",\n        \"country\": \"Netherlands\",\n        \"postalCode\": \"1016\",\n        \"phone\": \"+31 020 6223130\"\n    },\n    {\n        \"id\": 49,\n        \"firstName\": \"Stanisław\",\n        \"lastName\": \"Wójcik\",\n        \"country\": \"Poland\",\n        \"postalCode\": \"00-358\",\n        \"phone\": \"+48 22 828 37 39\"\n    },\n    {\n        \"id\": 50,\n        \"firstName\": \"Enrique\",\n        \"lastName\": \"Muñoz\",\n        \"country\": \"Spain\",\n        \"postalCode\": \"28015\",\n        \"phone\": \"+34 914 454 454\"\n    },\n    {\n        \"id\": 51,\n        \"firstName\": \"Joakim\",\n        \"lastName\": \"Johansson\",\n        \"country\": \"Sweden\",\n        \"postalCode\": \"11230\",\n        \"phone\": \"+46 08-651 52 52\"\n    },\n    {\n        \"id\": 52,\n        \"firstName\": \"Emma\",\n        \"lastName\": \"Jones\",\n        \"country\": \"United Kingdom\",\n        \"postalCode\": \"N1 5LH\",\n        \"phone\": \"+44 020 7707 0707\"\n    },\n    {\n        \"id\": 53,\n        \"firstName\": \"Phil\",\n        \"lastName\": \"Hughes\",\n        \"country\": \"United Kingdom\",\n        \"postalCode\": \"SW1V 3EN\",\n        \"phone\": \"+44 020 7976 5722\"\n    },\n    {\n        \"id\": 54,\n        \"firstName\": \"Steve\",\n        \"lastName\": \"Murray\",\n        \"country\": \"United Kingdom\",\n        \"postalCode\": \"EH4 1HH\",\n        \"phone\": \"+44 0131 315 3300\"\n    },\n    {\n        \"id\": 55,\n        \"firstName\": \"Mark\",\n        \"lastName\": \"Taylor\",\n        \"country\": \"Australia\",\n        \"postalCode\": \"2010\",\n        \"phone\": \"+61 (02) 9332 3633\"\n    },\n    {\n        \"id\": 56,\n        \"firstName\": \"Diego\",\n        \"lastName\": \"Gutiérrez\",\n        \"country\": \"Argentina\",\n        \"postalCode\": \"1106\",\n        \"phone\": \"+54 (0)11 4311 4333\"\n    },\n    {\n        \"id\": 57,\n        \"firstName\": \"Luis\",\n        \"lastName\": \"Rojas\",\n        \"country\": \"Chile\",\n        \"postalCode\": null,\n        \"phone\": \"+56 (0)2 635 4444\"\n    },\n    {\n        \"id\": 58,\n        \"firstName\": \"Manoj\",\n        \"lastName\": \"Pareek\",\n        \"country\": \"India\",\n        \"postalCode\": \"110017\",\n        \"phone\": \"+91 0124 39883988\"\n    },\n    {\n        \"id\": 59,\n        \"firstName\": \"Puja\",\n        \"lastName\": \"Srivastava\",\n        \"country\": \"India\",\n        \"postalCode\": \"560001\",\n        \"phone\": \"+91 080 22289999\"\n    }\n]"
				}
			]
		},
		{
			"name": "Add a new customer to the database",
			"request": {
				"method": "POST",
				"header": [],
				"body": {
					"mode": "raw",
					"raw": "{\r\n    \"firstName\" : \"James\",\r\n    \"lastName\" : \"Bond\",\r\n    \"company\" : \"Secret\",\r\n    \"address\" : \"A street\",\r\n    \"city\" : \"Earth\",\r\n    \"state\" : \"Earth\",\r\n    \"country\" : \"Earth\",\r\n    \"postalCode\" : \"007\",\r\n    \"phone\" : \"07007\",\r\n    \"fax\" : \"21\",\r\n    \"email\" : \"james@bond.com\",\r\n    \"supportRepId\" : \"7\"\r\n}",
					"options": {
						"raw": {
							"language": "json"
						}
					}
				},
				"url": {
					"raw": "https://noroff-task5api.herokuapp.com/api/customers/add",
					"protocol": "https",
					"host": [
						"noroff-task5api",
						"herokuapp",
						"com"
					],
					"path": [
						"api",
						"customers",
						"add"
					]
				}
			},
			"response": [
				{
					"name": "Add a new customer to the database",
					"originalRequest": {
						"method": "POST",
						"header": [],
						"body": {
							"mode": "raw",
							"raw": "{\r\n    \"firstName\" : \"James\",\r\n    \"lastName\" : \"Bond\",\r\n    \"company\" : \"Secret\",\r\n    \"address\" : \"A street\",\r\n    \"city\" : \"Earth\",\r\n    \"state\" : \"Earth\",\r\n    \"country\" : \"Earth\",\r\n    \"postalCode\" : \"007\",\r\n    \"phone\" : \"07007\",\r\n    \"fax\" : \"21\",\r\n    \"email\" : \"james@bond.com\",\r\n    \"supportRepId\" : \"7\"\r\n}",
							"options": {
								"raw": {
									"language": "json"
								}
							}
						},
						"url": {
							"raw": "https://noroff-task5api.herokuapp.com/api/customers/add",
							"protocol": "https",
							"host": [
								"noroff-task5api",
								"herokuapp",
								"com"
							],
							"path": [
								"api",
								"customers",
								"add"
							]
						}
					},
					"status": "OK",
					"code": 200,
					"_postman_previewlanguage": "plain",
					"header": [
						{
							"key": "Server",
							"value": "Cowboy"
						},
						{
							"key": "Connection",
							"value": "keep-alive"
						},
						{
							"key": "Content-Type",
							"value": "text/plain;charset=UTF-8"
						},
						{
							"key": "Content-Length",
							"value": "28"
						},
						{
							"key": "Date",
							"value": "Wed, 30 Sep 2020 15:03:06 GMT"
						},
						{
							"key": "Via",
							"value": "1.1 vegur"
						}
					],
					"cookie": [],
					"body": "Added a customer with ID: 60"
				}
			]
		},
		{
			"name": "Update an existing customer",
			"request": {
				"method": "POST",
				"header": [],
				"body": {
					"mode": "raw",
					"raw": "{\r\n    \"customerId\" : \"50\",\r\n    \"firstName\" : \"James\",\r\n    \"lastName\" : \"Bond\",\r\n    \"company\" : \"Secret\",\r\n    \"address\" : \"A street\",\r\n    \"city\" : \"Earth\",\r\n    \"state\" : \"Earth\",\r\n    \"country\" : \"Earth\",\r\n    \"postalCode\" : \"007\",\r\n    \"phone\" : \"07007\",\r\n    \"fax\" : \"21\",\r\n    \"email\" : \"james@bond.com\",\r\n    \"supportRepId\" : \"7\"\r\n}",
					"options": {
						"raw": {
							"language": "json"
						}
					}
				},
				"url": {
					"raw": "https://noroff-task5api.herokuapp.com/api/customers/update",
					"protocol": "https",
					"host": [
						"noroff-task5api",
						"herokuapp",
						"com"
					],
					"path": [
						"api",
						"customers",
						"update"
					]
				}
			},
			"response": [
				{
					"name": "Update an existing customer",
					"originalRequest": {
						"method": "POST",
						"header": [],
						"body": {
							"mode": "raw",
							"raw": "{\r\n    \"customerId\" : \"50\",\r\n    \"firstName\" : \"James\",\r\n    \"lastName\" : \"Bond\",\r\n    \"company\" : \"Secret\",\r\n    \"address\" : \"A street\",\r\n    \"city\" : \"Earth\",\r\n    \"state\" : \"Earth\",\r\n    \"country\" : \"Earth\",\r\n    \"postalCode\" : \"007\",\r\n    \"phone\" : \"07007\",\r\n    \"fax\" : \"21\",\r\n    \"email\" : \"james@bond.com\",\r\n    \"supportRepId\" : \"7\"\r\n}",
							"options": {
								"raw": {
									"language": "json"
								}
							}
						},
						"url": {
							"raw": "https://noroff-task5api.herokuapp.com/api/customers/update",
							"protocol": "https",
							"host": [
								"noroff-task5api",
								"herokuapp",
								"com"
							],
							"path": [
								"api",
								"customers",
								"update"
							]
						}
					},
					"status": "OK",
					"code": 200,
					"_postman_previewlanguage": "json",
					"header": [
						{
							"key": "Server",
							"value": "Cowboy"
						},
						{
							"key": "Connection",
							"value": "keep-alive"
						},
						{
							"key": "Content-Type",
							"value": "application/json"
						},
						{
							"key": "Transfer-Encoding",
							"value": "chunked"
						},
						{
							"key": "Date",
							"value": "Wed, 30 Sep 2020 14:36:13 GMT"
						},
						{
							"key": "Via",
							"value": "1.1 vegur"
						}
					],
					"cookie": [],
					"body": "{\n    \"id\": 50,\n    \"firstName\": \"James\",\n    \"lastName\": \"Bond\",\n    \"country\": \"Earth\",\n    \"postalCode\": \"007\",\n    \"phone\": \"07007\"\n}"
				}
			]
		},
		{
			"name": "Get customers per country",
			"request": {
				"method": "GET",
				"header": [],
				"url": {
					"raw": "https://noroff-task5api.herokuapp.com/api/customers/country",
					"protocol": "https",
					"host": [
						"noroff-task5api",
						"herokuapp",
						"com"
					],
					"path": [
						"api",
						"customers",
						"country"
					]
				}
			},
			"response": [
				{
					"name": "Get number of customers in each country",
					"originalRequest": {
						"method": "GET",
						"header": [],
						"url": {
							"raw": "https://noroff-task5api.herokuapp.com/api/customers/country",
							"protocol": "https",
							"host": [
								"noroff-task5api",
								"herokuapp",
								"com"
							],
							"path": [
								"api",
								"customers",
								"country"
							]
						}
					},
					"status": "OK",
					"code": 200,
					"_postman_previewlanguage": "json",
					"header": [
						{
							"key": "Server",
							"value": "Cowboy"
						},
						{
							"key": "Connection",
							"value": "keep-alive"
						},
						{
							"key": "Content-Type",
							"value": "application/json"
						},
						{
							"key": "Transfer-Encoding",
							"value": "chunked"
						},
						{
							"key": "Date",
							"value": "Wed, 30 Sep 2020 13:35:50 GMT"
						},
						{
							"key": "Via",
							"value": "1.1 vegur"
						}
					],
					"cookie": [],
					"body": "[\n    {\n        \"country\": \"USA\",\n        \"count\": 13\n    },\n    {\n        \"country\": \"Canada\",\n        \"count\": 8\n    },\n    {\n        \"country\": \"France\",\n        \"count\": 5\n    },\n    {\n        \"country\": \"Brazil\",\n        \"count\": 5\n    },\n    {\n        \"country\": \"Germany\",\n        \"count\": 4\n    },\n    {\n        \"country\": \"United Kingdom\",\n        \"count\": 3\n    },\n    {\n        \"country\": \"Portugal\",\n        \"count\": 2\n    },\n    {\n        \"country\": \"India\",\n        \"count\": 2\n    },\n    {\n        \"country\": \"Czech Republic\",\n        \"count\": 2\n    },\n    {\n        \"country\": \"Sweden\",\n        \"count\": 1\n    },\n    {\n        \"country\": \"Spain\",\n        \"count\": 1\n    },\n    {\n        \"country\": \"Poland\",\n        \"count\": 1\n    },\n    {\n        \"country\": \"Norway\",\n        \"count\": 1\n    },\n    {\n        \"country\": \"Netherlands\",\n        \"count\": 1\n    },\n    {\n        \"country\": \"Italy\",\n        \"count\": 1\n    },\n    {\n        \"country\": \"Ireland\",\n        \"count\": 1\n    },\n    {\n        \"country\": \"Hungary\",\n        \"count\": 1\n    },\n    {\n        \"country\": \"Finland\",\n        \"count\": 1\n    },\n    {\n        \"country\": \"Denmark\",\n        \"count\": 1\n    },\n    {\n        \"country\": \"Chile\",\n        \"count\": 1\n    },\n    {\n        \"country\": \"Belgium\",\n        \"count\": 1\n    },\n    {\n        \"country\": \"Austria\",\n        \"count\": 1\n    },\n    {\n        \"country\": \"Australia\",\n        \"count\": 1\n    },\n    {\n        \"country\": \"Argentina\",\n        \"count\": 1\n    }\n]"
				}
			]
		},
		{
			"name": "Get highest spenders",
			"request": {
				"method": "GET",
				"header": [],
				"url": {
					"raw": "https://noroff-task5api.herokuapp.com/api/customers/billing",
					"protocol": "https",
					"host": [
						"noroff-task5api",
						"herokuapp",
						"com"
					],
					"path": [
						"api",
						"customers",
						"billing"
					]
				}
			},
			"response": [
				{
					"name": "Get highest spenders",
					"originalRequest": {
						"method": "GET",
						"header": [],
						"url": {
							"raw": "https://noroff-task5api.herokuapp.com/api/customers/billing",
							"protocol": "https",
							"host": [
								"noroff-task5api",
								"herokuapp",
								"com"
							],
							"path": [
								"api",
								"customers",
								"billing"
							]
						}
					},
					"status": "OK",
					"code": 200,
					"_postman_previewlanguage": "json",
					"header": [
						{
							"key": "Server",
							"value": "Cowboy"
						},
						{
							"key": "Connection",
							"value": "keep-alive"
						},
						{
							"key": "Content-Type",
							"value": "application/json"
						},
						{
							"key": "Transfer-Encoding",
							"value": "chunked"
						},
						{
							"key": "Date",
							"value": "Wed, 30 Sep 2020 13:50:48 GMT"
						},
						{
							"key": "Via",
							"value": "1.1 vegur"
						}
					],
					"cookie": [],
					"body": "[\n    {\n        \"id\": 6,\n        \"sum\": 49\n    },\n    {\n        \"id\": 26,\n        \"sum\": 47\n    },\n    {\n        \"id\": 57,\n        \"sum\": 46\n    },\n    {\n        \"id\": 45,\n        \"sum\": 45\n    },\n    {\n        \"id\": 46,\n        \"sum\": 45\n    },\n    {\n        \"id\": 28,\n        \"sum\": 43\n    },\n    {\n        \"id\": 24,\n        \"sum\": 43\n    },\n    {\n        \"id\": 37,\n        \"sum\": 43\n    },\n    {\n        \"id\": 7,\n        \"sum\": 42\n    },\n    {\n        \"id\": 25,\n        \"sum\": 42\n    },\n    {\n        \"id\": 44,\n        \"sum\": 41\n    },\n    {\n        \"id\": 5,\n        \"sum\": 40\n    },\n    {\n        \"id\": 43,\n        \"sum\": 40\n    },\n    {\n        \"id\": 48,\n        \"sum\": 40\n    },\n    {\n        \"id\": 17,\n        \"sum\": 39\n    },\n    {\n        \"id\": 34,\n        \"sum\": 39\n    },\n    {\n        \"id\": 1,\n        \"sum\": 39\n    },\n    {\n        \"id\": 3,\n        \"sum\": 39\n    },\n    {\n        \"id\": 4,\n        \"sum\": 39\n    },\n    {\n        \"id\": 20,\n        \"sum\": 39\n    },\n    {\n        \"id\": 22,\n        \"sum\": 39\n    },\n    {\n        \"id\": 42,\n        \"sum\": 39\n    },\n    {\n        \"id\": 15,\n        \"sum\": 38\n    },\n    {\n        \"id\": 19,\n        \"sum\": 38\n    },\n    {\n        \"id\": 39,\n        \"sum\": 38\n    },\n    {\n        \"id\": 40,\n        \"sum\": 38\n    },\n    {\n        \"id\": 51,\n        \"sum\": 38\n    },\n    {\n        \"id\": 58,\n        \"sum\": 38\n    },\n    {\n        \"id\": 2,\n        \"sum\": 37\n    },\n    {\n        \"id\": 9,\n        \"sum\": 37\n    },\n    {\n        \"id\": 10,\n        \"sum\": 37\n    },\n    {\n        \"id\": 11,\n        \"sum\": 37\n    },\n    {\n        \"id\": 13,\n        \"sum\": 37\n    },\n    {\n        \"id\": 14,\n        \"sum\": 37\n    },\n    {\n        \"id\": 18,\n        \"sum\": 37\n    },\n    {\n        \"id\": 27,\n        \"sum\": 37\n    },\n    {\n        \"id\": 30,\n        \"sum\": 37\n    },\n    {\n        \"id\": 31,\n        \"sum\": 37\n    },\n    {\n        \"id\": 32,\n        \"sum\": 37\n    },\n    {\n        \"id\": 35,\n        \"sum\": 37\n    },\n    {\n        \"id\": 36,\n        \"sum\": 37\n    },\n    {\n        \"id\": 38,\n        \"sum\": 37\n    },\n    {\n        \"id\": 41,\n        \"sum\": 37\n    },\n    {\n        \"id\": 47,\n        \"sum\": 37\n    },\n    {\n        \"id\": 49,\n        \"sum\": 37\n    },\n    {\n        \"id\": 52,\n        \"sum\": 37\n    },\n    {\n        \"id\": 53,\n        \"sum\": 37\n    },\n    {\n        \"id\": 55,\n        \"sum\": 37\n    },\n    {\n        \"id\": 56,\n        \"sum\": 37\n    },\n    {\n        \"id\": 8,\n        \"sum\": 37\n    },\n    {\n        \"id\": 12,\n        \"sum\": 37\n    },\n    {\n        \"id\": 16,\n        \"sum\": 37\n    },\n    {\n        \"id\": 21,\n        \"sum\": 37\n    },\n    {\n        \"id\": 23,\n        \"sum\": 37\n    },\n    {\n        \"id\": 29,\n        \"sum\": 37\n    },\n    {\n        \"id\": 33,\n        \"sum\": 37\n    },\n    {\n        \"id\": 50,\n        \"sum\": 37\n    },\n    {\n        \"id\": 54,\n        \"sum\": 37\n    },\n    {\n        \"id\": 59,\n        \"sum\": 36\n    }\n]"
				}
			]
		},
		{
			"name": "Get favorite genres",
			"request": {
				"method": "GET",
				"header": [],
				"url": {
					"raw": "https://noroff-task5api.herokuapp.com/api/customers/genre",
					"protocol": "https",
					"host": [
						"noroff-task5api",
						"herokuapp",
						"com"
					],
					"path": [
						"api",
						"customers",
						"genre"
					]
				}
			},
			"response": [
				{
					"name": "Get favorite genres",
					"originalRequest": {
						"method": "GET",
						"header": [],
						"url": {
							"raw": "https://noroff-task5api.herokuapp.com/api/customers/genre",
							"protocol": "https",
							"host": [
								"noroff-task5api",
								"herokuapp",
								"com"
							],
							"path": [
								"api",
								"customers",
								"genre"
							]
						}
					},
					"status": "OK",
					"code": 200,
					"_postman_previewlanguage": "json",
					"header": [
						{
							"key": "Server",
							"value": "Cowboy"
						},
						{
							"key": "Connection",
							"value": "keep-alive"
						},
						{
							"key": "Content-Type",
							"value": "application/json"
						},
						{
							"key": "Transfer-Encoding",
							"value": "chunked"
						},
						{
							"key": "Date",
							"value": "Wed, 30 Sep 2020 13:51:58 GMT"
						},
						{
							"key": "Via",
							"value": "1.1 vegur"
						}
					],
					"cookie": [],
					"body": "[\n    {\n        \"customerId\": 1,\n        \"genre\": \"Rock\",\n        \"count\": 14\n    },\n    {\n        \"customerId\": 2,\n        \"genre\": \"Rock\",\n        \"count\": 17\n    },\n    {\n        \"customerId\": 3,\n        \"genre\": \"Metal\",\n        \"count\": 10\n    },\n    {\n        \"customerId\": 4,\n        \"genre\": \"Rock\",\n        \"count\": 17\n    },\n    {\n        \"customerId\": 5,\n        \"genre\": \"Rock\",\n        \"count\": 15\n    },\n    {\n        \"customerId\": 6,\n        \"genre\": \"Rock\",\n        \"count\": 10\n    },\n    {\n        \"customerId\": 7,\n        \"genre\": \"Rock\",\n        \"count\": 15\n    },\n    {\n        \"customerId\": 8,\n        \"genre\": \"Rock\",\n        \"count\": 21\n    },\n    {\n        \"customerId\": 9,\n        \"genre\": \"Rock\",\n        \"count\": 21\n    },\n    {\n        \"customerId\": 10,\n        \"genre\": \"Rock\",\n        \"count\": 29\n    },\n    {\n        \"customerId\": 11,\n        \"genre\": \"Latin\",\n        \"count\": 16\n    },\n    {\n        \"customerId\": 12,\n        \"genre\": \"Latin\",\n        \"count\": 16\n    },\n    {\n        \"customerId\": 12,\n        \"genre\": \"Rock\",\n        \"count\": 16\n    },\n    {\n        \"customerId\": 13,\n        \"genre\": \"Rock\",\n        \"count\": 11\n    },\n    {\n        \"customerId\": 14,\n        \"genre\": \"Rock\",\n        \"count\": 13\n    },\n    {\n        \"customerId\": 15,\n        \"genre\": \"Rock\",\n        \"count\": 12\n    },\n    {\n        \"customerId\": 16,\n        \"genre\": \"Metal\",\n        \"count\": 12\n    },\n    {\n        \"customerId\": 17,\n        \"genre\": \"Rock\",\n        \"count\": 8\n    },\n    {\n        \"customerId\": 18,\n        \"genre\": \"Rock\",\n        \"count\": 19\n    },\n    {\n        \"customerId\": 19,\n        \"genre\": \"Rock\",\n        \"count\": 15\n    },\n    {\n        \"customerId\": 20,\n        \"genre\": \"Latin\",\n        \"count\": 14\n    },\n    {\n        \"customerId\": 21,\n        \"genre\": \"Rock\",\n        \"count\": 9\n    },\n    {\n        \"customerId\": 22,\n        \"genre\": \"Metal\",\n        \"count\": 12\n    },\n    {\n        \"customerId\": 23,\n        \"genre\": \"Latin\",\n        \"count\": 12\n    },\n    {\n        \"customerId\": 24,\n        \"genre\": \"Rock\",\n        \"count\": 12\n    },\n    {\n        \"customerId\": 25,\n        \"genre\": \"Rock\",\n        \"count\": 14\n    },\n    {\n        \"customerId\": 26,\n        \"genre\": \"Rock\",\n        \"count\": 14\n    },\n    {\n        \"customerId\": 27,\n        \"genre\": \"Rock\",\n        \"count\": 16\n    },\n    {\n        \"customerId\": 28,\n        \"genre\": \"Rock\",\n        \"count\": 17\n    },\n    {\n        \"customerId\": 29,\n        \"genre\": \"Rock\",\n        \"count\": 25\n    },\n    {\n        \"customerId\": 30,\n        \"genre\": \"Rock\",\n        \"count\": 19\n    },\n    {\n        \"customerId\": 31,\n        \"genre\": \"Latin\",\n        \"count\": 13\n    },\n    {\n        \"customerId\": 32,\n        \"genre\": \"Latin\",\n        \"count\": 14\n    },\n    {\n        \"customerId\": 33,\n        \"genre\": \"Rock\",\n        \"count\": 19\n    },\n    {\n        \"customerId\": 34,\n        \"genre\": \"Rock\",\n        \"count\": 15\n    },\n    {\n        \"customerId\": 35,\n        \"genre\": \"Rock\",\n        \"count\": 16\n    },\n    {\n        \"customerId\": 36,\n        \"genre\": \"Metal\",\n        \"count\": 18\n    },\n    {\n        \"customerId\": 37,\n        \"genre\": \"Rock\",\n        \"count\": 11\n    },\n    {\n        \"customerId\": 38,\n        \"genre\": \"Rock\",\n        \"count\": 21\n    },\n    {\n        \"customerId\": 39,\n        \"genre\": \"Rock\",\n        \"count\": 13\n    },\n    {\n        \"customerId\": 40,\n        \"genre\": \"Rock\",\n        \"count\": 17\n    },\n    {\n        \"customerId\": 41,\n        \"genre\": \"Rock\",\n        \"count\": 10\n    },\n    {\n        \"customerId\": 42,\n        \"genre\": \"Metal\",\n        \"count\": 14\n    },\n    {\n        \"customerId\": 43,\n        \"genre\": \"Rock\",\n        \"count\": 18\n    },\n    {\n        \"customerId\": 44,\n        \"genre\": \"Rock\",\n        \"count\": 18\n    },\n    {\n        \"customerId\": 45,\n        \"genre\": \"Rock\",\n        \"count\": 11\n    },\n    {\n        \"customerId\": 46,\n        \"genre\": \"Rock\",\n        \"count\": 12\n    },\n    {\n        \"customerId\": 47,\n        \"genre\": \"Rock\",\n        \"count\": 18\n    },\n    {\n        \"customerId\": 48,\n        \"genre\": \"Rock\",\n        \"count\": 18\n    },\n    {\n        \"customerId\": 49,\n        \"genre\": \"Rock\",\n        \"count\": 22\n    },\n    {\n        \"customerId\": 50,\n        \"genre\": \"Rock\",\n        \"count\": 22\n    },\n    {\n        \"customerId\": 51,\n        \"genre\": \"Latin\",\n        \"count\": 12\n    },\n    {\n        \"customerId\": 52,\n        \"genre\": \"Latin\",\n        \"count\": 15\n    },\n    {\n        \"customerId\": 53,\n        \"genre\": \"Rock\",\n        \"count\": 18\n    },\n    {\n        \"customerId\": 54,\n        \"genre\": \"Rock\",\n        \"count\": 11\n    },\n    {\n        \"customerId\": 55,\n        \"genre\": \"Rock\",\n        \"count\": 22\n    },\n    {\n        \"customerId\": 56,\n        \"genre\": \"Alternative & Punk\",\n        \"count\": 9\n    },\n    {\n        \"customerId\": 56,\n        \"genre\": \"Rock\",\n        \"count\": 9\n    },\n    {\n        \"customerId\": 57,\n        \"genre\": \"Rock\",\n        \"count\": 9\n    },\n    {\n        \"customerId\": 58,\n        \"genre\": \"Rock\",\n        \"count\": 13\n    },\n    {\n        \"customerId\": 59,\n        \"genre\": \"Rock\",\n        \"count\": 12\n    }\n]"
				}
			]
		}
	],
	"protocolProfileBehavior": {}
}